{
    "name": "codebuild-demo-project",
    "description": "",
    "source": {
        "type": "S3",
        "location": "codebuild-087749597549-input-bucket/MessageUtil.zip",
        "buildspec": "",
        "auth": {
            "type": "OAUTH",
            "resource": ""
        },
        "insecureSsl": true,
        "sourceIdentifier": ""
    },
    "sourceVersion": "",
    "secondarySourceVersions": [
        {
            "sourceIdentifier": "",
            "sourceVersion": ""
        }
    ],
    "artifacts": {
        "type": "S3",
        "location": "codebuild-087749597549-output-bucket",
        "path": "",
        "namespaceType": "NONE",
        "name": "",
        "packaging": "ZIP",
        "overrideArtifactName": true,
        "encryptionDisabled": true,
        "artifactIdentifier": ""
    },
    "environment": {
        "type": "LINUX_CONTAINER",
        "image": "aws/codebuild/amazonlinux2-x86_64-standard:3.0",
        "computeType": "BUILD_GENERAL1_SMALL",
        "privilegedMode": true,
        "imagePullCredentialsType": "CODEBUILD"
    },
    "serviceRole": "arn:aws:iam::087749597549:role/CodeBuildServiceRole",
    "vpcConfig": {
        "vpcId": "vpc-0665002155d6dd8a7",
        "subnets": [
            "subnet-0f1f7f70ba5754435"
        ],
        "securityGroupIds": [
            "sg-02c79cf2ded21aecc"
        ]
    }
}
